%YAML 1.1
%TAG !u! tag:unity3d.com,2011:
--- !u!1386491679 &1
PresetManager:
  m_ObjectHideFlags: 0
  serializedVersion: 2
  m_DefaultPresets:
  - first:
      m_NativeTypeID: 114
      m_ManagedTypePPtr: {fileID: 11500000, guid: caff514de9b15ad48ab85dcff5508221,
        type: 3}
      m_ManagedTypeFallback: 
    second:
    - m_Preset: {fileID: 2655988077585873504, guid: 1421ad86ff3787b4dae70fe9e699a25f,
        type: 2}
      m_Filter: Right
    - m_Preset: {fileID: 2655988077585873504, guid: ffd8268f7307a0c48a067dad4a8fe060,
        type: 2}
      m_Filter: Left
  - first:
      m_NativeTypeID: 1020
      m_ManagedTypePPtr: {fileID: 0}
      m_ManagedTypeFallback: 
    second:
    - m_Preset: {fileID: 0}
      m_Filter: 
  - first:
      m_NativeTypeID: 1006
      m_ManagedTypePPtr: {fileID: 0}
      m_ManagedTypeFallback: 
    second:
    - m_Preset: {fileID: 2655988077585873504, guid: 7a99f8aa944efe94cb9bd74562b7d5f9,
        type: 2}
      m_Filter: 
  - first:
      m_NativeTypeID: 108
      m_ManagedTypePPtr: {fileID: 0}
      m_ManagedTypeFallback: 
    second:
    - m_Preset: {fileID: 0}
      m_Filter: 
